LDATS Example
…
Installation

To obtain the most recent version of LDATS, install the most recent version from GitHub:

install.packages("devtools")
devtools::install_github("weecology/LDATS")

Data

For this vignette, we will be using rodent data from the control plots of the Portal Project, which come with the LDATS package

data(rodents)
rodents
#> # A tibble: 436 x 25
#>    newmoon date      plots traps    BA    DM    DO    DS  `NA`    OL    OT
#>      <int> <chr>     <int> <int> <int> <int> <int> <int> <int> <int> <int>
#>  1       1 1977-07-~     8   392     0    13     0     2     2     0     0
#>  2       2 1977-08-~     8   392     0    20     1     3     2     0     0
#>  3       3 1977-09-~     8   392     0    21     0     8     4     0     0
#>  4       4 1977-10-~     8   392     0    21     3    12     4     2     3
#>  5       5 1977-11-~     8   392     0    16     1     9     5     2     1
#>  6       6 1977-12-~     8   392     0    17     1    13     5     1     5
#>  7       7 1978-01-~     8   392     0    19     0     9     4     2     3
#>  8       8 1978-02-~     8   392     0    15     0     9     2     1     2
#>  9       9 1978-03-~     8   392     0    11     1    12     1     1     5
#> 10      10 1978-04-~     8   392     0    14     1    15     1     0     0
#> # ... with 426 more rows, and 14 more variables: PB <int>, PE <int>,
#> #   PF <int>, PH <int>, PI <int>, PL <int>, PM <int>, PP <int>, RF <int>,
#> #   RM <int>, RO <int>, SF <int>, SH <int>, SO <int>
